…
dn_lq_nc <- full_join(dn_nc, lq_nc, 
                      by = "state")
```

    ## Warning in full_join(dn_nc, lq_nc, by = "state"): Detected an unexpected many-to-many relationship between `x` and `y`.
    ## ℹ Row 1 of `x` matches multiple rows in `y`.
    ## ℹ Row 1 of `y` matches multiple rows in `x`.
    ## ℹ If a many-to-many relationship is expected, set `relationship =
    ##   "many-to-many"` to silence this warning.

``` r
dn_lq_nc
```

    ## # A tibble: 336 × 13
    ##    address.x city.x state zip.x longitude.x latitude.x establishment.x address.y
    ##    <chr>     <chr>  <chr> <chr>       <dbl>      <dbl> <chr>           <chr>    
    ##  1 1 Regent… Ashev… NC    28806       -82.6       35.6 dn              165 Hwy …
    ##  2 1 Regent… Ashev… NC    28806       -82.6       35.6 dn              3127 Slo…
    ##  3 1 Regent… Ashev… NC    28806       -82.6       35.6 dn              4900 Sou…
    ##  4 1 Regent… Ashev… NC    28806       -82.6       35.6 dn              4414 Dur…
    ##  5 1 Regent… Ashev… NC    28806       -82.6       35.6 dn              1910 Wes…
    ##  6 1 Regent… Ashev… NC    28806       -82.6       35.6 dn              1201 Lan…
    ##  7 1 Regent… Ashev… NC    28806       -82.6       35.6 dn              1607 Fai…
    ##  8 1 Regent… Ashev… NC    28806       -82.6       35.6 dn              191 Cres…
    ##  9 1 Regent… Ashev… NC    28806       -82.6       35.6 dn              2211 Sum…
    ## 10 1 Regent… Ashev… NC    28806       -82.6       35.6 dn              1001 Aer…
    ## # ℹ 326 more rows
    ## # ℹ 5 more variables: city.y <chr>, zip.y <chr>, longitude.y <dbl>,
    ## #   latitude.y <dbl>, establishment.y <chr>
…
dn_lq_tx <- full_join(dn_tx, lq_tx, 
                      by = "state")
```

    ## Warning in full_join(dn_tx, lq_tx, by = "state"): Detected an unexpected many-to-many relationship between `x` and `y`.
    ## ℹ Row 1 of `x` matches multiple rows in `y`.
    ## ℹ Row 1 of `y` matches multiple rows in `x`.
    ## ℹ If a many-to-many relationship is expected, set `relationship =
    ##   "many-to-many"` to silence this warning.

``` r
dn_lq_tx
```

    ## # A tibble: 47,400 × 13
    ##    address.x city.x state zip.x longitude.x latitude.x establishment.x address.y
    ##    <chr>     <chr>  <chr> <chr>       <dbl>      <dbl> <chr>           <chr>    
    ##  1 120 East… Abile… TX    79601       -99.6       32.4 dn              3018 Cat…
    ##  2 120 East… Abile… TX    79601       -99.6       32.4 dn              3501 Wes…
    ##  3 120 East… Abile… TX    79601       -99.6       32.4 dn              14925 La…
    ##  4 120 East… Abile… TX    79601       -99.6       32.4 dn              909 East…
    ##  5 120 East… Abile… TX    79601       -99.6       32.4 dn              2400 Eas…
    ##  6 120 East… Abile… TX    79601       -99.6       32.4 dn              1220 Nor…
    ##  7 120 East… Abile… TX    79601       -99.6       32.4 dn              1165 Hwy…
    ##  8 120 East… Abile… TX    79601       -99.6       32.4 dn              880 Sout…
    ##  9 120 East… Abile… TX    79601       -99.6       32.4 dn              1708 Int…
    ## 10 120 East… Abile… TX    79601       -99.6       32.4 dn              9305 Eas…
    ## # ℹ 47,390 more rows
    ## # ℹ 5 more variables: city.y <chr>, zip.y <chr>, longitude.y <dbl>,
    ## #   latitude.y <dbl>, establishment.y <chr>
…
dn_lq_ca <- full_join(dn_ca, lq_ca, 
                      by = "state")
```

    ## Warning in full_join(dn_ca, lq_ca, by = "state"): Detected an unexpected many-to-many relationship between `x` and `y`.
    ## ℹ Row 1 of `x` matches multiple rows in `y`.
    ## ℹ Row 1 of `y` matches multiple rows in `x`.
    ## ℹ If a many-to-many relationship is expected, set `relationship =
    ##   "many-to-many"` to silence this warning.

``` r
dn_lq_ca
```

    ## # A tibble: 22,568 × 13
    ##    address.x city.x state zip.x longitude.x latitude.x establishment.x address.y
    ##    <chr>     <chr>  <chr> <chr>       <dbl>      <dbl> <chr>           <chr>    
    ##  1 14240 Us… Adela… CA    92301       -117.       34.5 dn              1752 Cle…
    ##  2 14240 Us… Adela… CA    92301       -117.       34.5 dn              8858 Spe…
    ##  3 14240 Us… Adela… CA    92301       -117.       34.5 dn              3232 Riv…
    ##  4 14240 Us… Adela… CA    92301       -117.       34.5 dn              920 Univ…
    ##  5 14240 Us… Adela… CA    92301       -117.       34.5 dn              3 Center…
    ##  6 14240 Us… Adela… CA    92301       -117.       34.5 dn              1771 Res…
    ##  7 14240 Us… Adela… CA    92301       -117.       34.5 dn              6275 Dub…
    ##  8 14240 Us… Adela… CA    92301       -117.       34.5 dn              316 Pitt…
    ##  9 14240 Us… Adela… CA    92301       -117.       34.5 dn              190 N. 1…
    ## 10 14240 Us… Adela… CA    92301       -117.       34.5 dn              46200 La…
    ## # ℹ 22,558 more rows
    ## # ℹ 5 more variables: city.y <chr>, zip.y <chr>, longitude.y <dbl>,
    ## #   latitude.y <dbl>, establishment.y <chr>
…
